Place,Sex,Name,CyrillicName,BodyweightKg,Squat1Kg,Squat2Kg,Squat3Kg,Best3SquatKg,Squat4Kg,Bench1Kg,Bench2Kg,Bench3Kg,Best3BenchKg,Bench4Kg,Deadlift1Kg,Deadlift2Kg,Deadlift3Kg,Best3DeadliftKg,Deadlift4Kg,TotalKg,WeightClassKg,Event,Equipment,Tested,Division,Age,BirthDate
1,F,Ekaterina Stepanyan,Екатерина Степанян,51.7,-80,85,,85,,-45,45,-50,45,,110,115,,115,,245,52,SBD,Wraps,Yes,Amateur Open,36,1983-07-06
2,F,Oksana Bochkova,Оксана Бочкова,49,80,82.5,85,85,,47.5,50,52.5,52.5,,85,-90,90,90,,227.5,52,SBD,Wraps,Yes,Amateur Open,28,1991-08-15
DQ,F,Karina Kushnerchuk,Карина Кушнерчук,51.4,-90,-90,-90,,,,,,,,,,,,,,52,SBD,Wraps,Yes,Amateur Open,26,1993-02-26
1,F,Roza Yusupova,Роза Юсупова,54.9,80,85,90,90,,55,-57.5,-57.5,55,,110,-117.5,,110,,255,56,SBD,Wraps,Yes,Amateur Open,38,1981-04-01
1,F,Olga Shibaeva,Ольга Шибаева,73.8,107.5,-112.5,-112.5,107.5,,60,62.5,65,65,,105,112.5,117.5,117.5,,290,75,SBD,Wraps,Yes,Amateur Open,43,1976-06-11
2,F,Ella Mugdusova,Элла Мугдусова,70.3,80,82.5,85,85,,52.5,55,57.5,57.5,,90,95,-100,95,,237.5,75,SBD,Wraps,Yes,Amateur Open,28,1991-02-08
1,M,Nikita Zdobnikov,Никита Здобников,73.7,180,190,-195,190,,-125,125,-127.5,125,,220,-237.5,237.5,237.5,,552.5,75,SBD,Wraps,Yes,Amateur Open,37,1982-04-20
2,M,Yaroslav Korol,Ярослав Король,71.9,132.5,140,-145,140,,-90,95,97.5,97.5,,165,175,185,185,,422.5,75,SBD,Wraps,Yes,Amateur Open,29,1990-05-15
1,M,Spartak Rafaylidi,Спартак Рафайлиди,76,85,95,-100,95,,50,60,-65,60,,85,100,105,105,,260,82.5,SBD,Wraps,Yes,Youth,12,2007-01-14
1,M,Nikita Zakharov,Никита Захаров,80,180,190,195,195,,110,120,-127.5,120,,220,-232.5,,220,,535,82.5,SBD,Wraps,Yes,Amateur Juniors 20-23,21,1998-08-31
1,M,Andrey Filippov,Андрей Филиппов,81.3,-185,185,195,195,,-135,135,145,145,,220,230,235,235,,575,82.5,SBD,Wraps,Yes,Amateur Open,30,1989-06-10
2,M,Sergey Semyonov,Сергей Семёнов,81.4,190,195,200,200,,115,-120,120,120,,225,235,242.5,242.5,,562.5,82.5,SBD,Wraps,Yes,Amateur Open,27,1992-06-22
1,M,Ivan Laptev,Иван Лаптев,87.6,220,230,-240,230,,145,152.5,162.5,162.5,,215,225,235,235,,627.5,90,SBD,Wraps,Yes,Amateur Open,26,1993-03-31
DQ,M,Sergey Arkaniya,Сергей Аркания,87.7,-180,-180,-190,,,-120,120,-125,120,,-210,215,230,230,,,90,SBD,Wraps,Yes,Amateur Open,29,1989-10-17
1,M,Vladimir Avdzhyan,Владимир Авджян,109,200,-220,230,230,,140,150,155,155,,230,250,-270,250,,635,110,SBD,Wraps,Yes,Amateur Open,26,1993-02-16
DQ,M,Maksim Biryuchkov,Максим Бирючков,102.6,130,140,-145,140,,100,110,-120,110,,-160,-160,-160,,,,110,SBD,Wraps,Yes,Amateur Open,39,1980-09-07
1,M,Pavel Zhdanov,Павел Жданов,121.2,250,260,270,270,,180,185,190,190,,280,-300,-300,280,,740,125,SBD,Wraps,Yes,Amateur Open,39,1980-01-01
2,M,Magomedmurad Magomedov,Магомедмурад Магомедов,121.4,255,-265,265,265,,190,197.5,-202.5,197.5,,-270,-270,270,270,,732.5,125,SBD,Wraps,Yes,Amateur Open,44,1974-12-24
1,M,Magomedmurad Magomedov,Магомедмурад Магомедов,121.4,255,-265,265,265,,190,197.5,-202.5,197.5,,-270,-270,270,270,,732.5,125,SBD,Wraps,Yes,Amateur Masters 40-49,44,1974-12-24
1,F,Irina Lidineva,Ирина Лидинева,46.9,50,-55,55,55,,25,27.5,30,30,,50,55,60,60,,145,48,SBD,Wraps,No,Pro Open,33,1985-12-19
1,M,Aslan Mariamidze,Аслан Мариамидзе,72.6,-150,-150,155,155,,135,-140,-140,135,,-205,227.5,-230,227.5,,517.5,75,SBD,Wraps,No,Pro Open,27,1992-02-16
1,M,Aleksandr Priymakov,Александр Приймаков,87.2,210,225,-230,225,,-150,-155,160,160,,230,245,260,260,,645,90,SBD,Wraps,No,Pro Open,24,1995-07-23
1,M,Timur Eredzhepov,Тімур Ереджепов,104.7,240,260,270,270,,175,185,-195,185,,260,280,290,290,,745,110,SBD,Wraps,No,Pro Open,29,1990-06-21
1,M,Anton Klyuka,Антон Клюка,160.7,310,335,345,345,,170,175,180,180,,330,345,-360,345,,870,140+,SBD,Wraps,No,Pro Open,35,1983-10-30
1,M,Valeriya Sorokina,Валерия Сорокина,54.9,-102.5,102.5,-110,102.5,,72.5,-75,-75,72.5,,130,137.5,142.5,142.5,147.5,317.5,56,SBD,Wraps,Yes,Amateur Sub-Juniors 17-19,18,2000-12-28
1,M,Oksana Pakhuchaya,Оксана Пахучая,56,115,122.5,130,130,,57.5,62.5,-65,62.5,,145,155,-160,155,,347.5,56,SBD,Wraps,Yes,Amateur Open,40,1978-09-19
2,M,Valeriya Sorokina,Валерия Сорокина,54.9,-102.5,102.5,-110,102.5,,72.5,-75,-75,72.5,,130,137.5,142.5,142.5,147.5,317.5,56,SBD,Wraps,Yes,Amateur Open,18,2000-12-28
1,M,Oksana Pakhuchaya,Оксана Пахучая,56,115,122.5,130,130,,57.5,62.5,-65,62.5,,145,155,-160,155,,347.5,56,SBD,Wraps,Yes,Amateur Masters 40-49,40,1978-09-19
1,M,Tatyana Zhuravleva,Татьяна Журавлева,61.6,70,75,82.5,82.5,,40,45,-47.5,45,,75,80,85,85,,212.5,67.5,SBD,Wraps,Yes,Amateur Open,32,1987-03-29
1,M,Natalya Podobryaeva,Наталья Подобряева,75,110,120,-130,120,,62.5,-65,-65,62.5,,130,140,-147.5,140,,322.5,75,SBD,Wraps,Yes,Amateur Sub-Juniors 17-19,17,2001-12-27
1,M,Pavel Mnatsakanyan,Павел Мнацаканян,95.5,165,170,-172.5,170,,100,105,110,110,,165,170,175,175,,455,100,SBD,Wraps,Yes,Amateur Teen 14-16,16,2003-01-27
1,M,Aleksandr Pakhuchiy,Александр Пахучий,109.4,290,305,-310,305,,200,210,220,220,,300,320,-330,320,,845,110,SBD,Wraps,Yes,Amateur Open,41,1978-04-24
1,M,Marina Morozova,Марина Морозова,74.5,210,-220,225,225,,105,112.5,-115,112.5,,200,215,-220,215,,552.5,75,SBD,Wraps,No,Pro Open,40,1978-10-09
1,M,Aleksandr Vovenko,Александр Вовенко,133.2,-220,220,-240,220,,-205,210,220,220,,330,-350,-350,330,,770,140,SBD,Wraps,No,Pro Open,38,1980-11-25
1,M,Andrey Sapozhonkov,Андрей Сапожонков,89.8,,,,,,260,273,275,275,,,,,,,275,90,B,Raw,No,Pro Open,32,1987-01-01
1,M,Oleg Perepechenov,Олег Перепеченов,94.3,,,,,,270,-275,-277.5,270,-280.5,,,,,,270,100,B,Raw,No,Pro Open,44,1975-09-14
1,F,Elena Kuznetsova,Елена Кузнецова,46.6,,,,,,57.5,60,62.5,62.5,,,,,,,62.5,48,B,Raw,Yes,Amateur Open,39,1980-04-03
1,F,Oksana Bochkova,Оксана Бочкова,49,,,,,,47.5,50,52.5,52.5,,,,,,,52.5,52,B,Raw,Yes,Amateur Open,28,1991-08-15
1,F,Valeriya Sorokina,Валерия Сорокина,54.9,,,,,,72.5,-75,-75,72.5,,,,,,,72.5,56,B,Raw,Yes,Amateur Sub-Juniors 17-19,18,2000-12-28
1,F,Valeriya Sorokina,Валерия Сорокина,54.9,,,,,,72.5,-75,-75,72.5,,,,,,,72.5,56,B,Raw,Yes,Amateur Open,18,2000-12-28
2,F,Roza Yusupova,Роза Юсупова,54.9,,,,,,55,-57.5,-57.5,55,,,,,,,55,56,B,Raw,Yes,Amateur Open,38,1981-04-01
1,F,Elina Kukina,Элина Кукина,58.3,,,,,,60,65,67.5,67.5,,,,,,,67.5,60,B,Raw,Yes,Amateur Open,46,1972-12-17
1,F,Yuliya Ivanova,Юлия Иванова,66.9,,,,,,-40,45,-50,45,,,,,,,45,67.5,B,Raw,Yes,Amateur Open,29,1990-04-04
1,F,Natalya Yariz,Наталья Яриз,74.4,,,,,,87.5,92.5,97.5,97.5,,,,,,,97.5,75,B,Raw,Yes,Amateur Open,40,1979-03-04
1,F,Ekaterina Nesova,Екатерина Несова,101.2,,,,,,-60,-60,60,60,,,,,,,60,90+,B,Raw,Yes,Amateur Masters 40-49,42,1977-02-05
1,M,Aleksey Plesovskikh,Алексей Плесовских,72.9,,,,,,120,130,-135,130,,,,,,,130,75,B,Raw,Yes,Amateur Juniors 20-23,23,1996-07-13
1,M,Aleksey Plesovskikh,Алексей Плесовских,72.9,,,,,,120,130,-135,130,,,,,,,130,75,B,Raw,Yes,Amateur Open,23,1996-07-13
2,M,Mark Abadzhyan,Марк Абаджян,73.8,,,,,,120,127.5,-135,127.5,,,,,,,127.5,75,B,Raw,Yes,Amateur Open,24,1995-09-08
3,M,Yuriy Efimov,Юрий Ефимов,74.3,,,,,,-125,125,-132.5,125,,,,,,,125,75,B,Raw,Yes,Amateur Open,28,1991-07-19
4,M,Aleksey Rodionov,Алексей Родионов,71.9,,,,,,110,-117.5,-117.5,110,,,,,,,110,75,B,Raw,Yes,Amateur Open,28,1991-08-03
5,M,Evgeniy Ivakov,Евгений Иваков,70.1,,,,,,100,-105,-105,100,,,,,,,100,75,B,Raw,Yes,Amateur Open,33,1985-12-20
1,M,Aleksandr Podkopaev,Александр Подкопаев,81.4,,,,,,165,170,-175,170,,,,,,,170,82.5,B,Raw,Yes,Amateur Juniors 20-23,23,1996-08-30
1,M,Aleksandr Podkopaev,Александр Подкопаев,81.4,,,,,,165,170,-175,170,,,,,,,170,82.5,B,Raw,Yes,Amateur Open,23,1996-08-30
2,M,Valeriy Tsamalaidze,Валерий Цамалаидзе,81.3,,,,,,-137.5,-142.5,142.5,142.5,,,,,,,142.5,82.5,B,Raw,Yes,Amateur Open,27,1992-07-09
3,M,Evgeniy Ivashchenko,Евгений Иващенко,80.5,,,,,,130,135,137.5,137.5,,,,,,,137.5,82.5,B,Raw,Yes,Amateur Open,32,1987-02-23
4,M,Dmitriy Senchugov,Дмитрий Сенчугов,78.6,,,,,,110,120,-127.5,120,,,,,,,120,82.5,B,Raw,Yes,Amateur Open,28,1991-08-22
1,M,Denis Pitsun,Денис Пицун,79,,,,,,130,135,-145,135,,,,,,,135,82.5,B,Raw,Yes,Amateur Masters 40-49,40,1979-05-05
1,M,Roman Nazarov,Роман Назаров,83.5,,,,,,167.5,-175,,167.5,,,,,,,167.5,90,B,Raw,Yes,Amateur Juniors 20-23,23,1995-10-19
2,M,Artyom Kozyaev,Артём Козяев,87.2,,,,,,145,-152.5,152.5,152.5,,,,,,,152.5,90,B,Raw,Yes,Amateur Juniors 20-23,22,1996-10-08
1,M,Maksim Strunin,Максим Струнин,89.3,,,,,,170,175,-177.5,175,,,,,,,175,90,B,Raw,Yes,Amateur Open,29,1990-09-13
2,M,Boris Pankov,Борис Панков,89.9,,,,,,150,157.5,160,160,,,,,,,160,90,B,Raw,Yes,Amateur Open,26,1993-04-26
3,M,Artem Kormilchenko,Артем Кормильченко,88.8,,,,,,-155,155,157.5,157.5,,,,,,,157.5,90,B,Raw,Yes,Amateur Open,36,1983-05-21
4,M,Andrey Lopatko,Андрей Лопатко,89.7,,,,,,150,-155,-155,150,,,,,,,150,90,B,Raw,Yes,Amateur Open,26,1993-09-11
5,M,Dmitriy Zolotykh,Дмитрий Золотых,89.5,,,,,,-120,120,122.5,122.5,,,,,,,122.5,90,B,Raw,Yes,Amateur Open,28,1990-11-03
DQ,M,Muzafurudin Abdulalimov,Музафурудин Абдулалимов,89.3,,,,,,-155,,,,,,,,,,,90,B,Raw,Yes,Amateur Open,32,1987-04-17
1,M,Vladimir Makitruk,Владимир Макитрук,83.2,,,,,,132.5,135,137.5,137.5,,,,,,,137.5,90,B,Raw,Yes,Amateur Masters 60-69,62,1956-12-04
1,M,Matvey Sidorov,Матвей Сидоров,96.7,,,,,,170,175,180,180,,,,,,,180,100,B,Raw,Yes,Amateur Sub-Juniors 17-19,18,2001-04-17
1,M,Magomedemin Bakhmudov,Магомедэмин Бахмудов,99.6,,,,,,-200,-205,205,205,,,,,,,205,100,B,Raw,Yes,Amateur Open,30,1989-02-17
2,M,Ruben Odabashyan,Рубен Одабашян,97.2,,,,,,160,170,-177.5,170,,,,,,,170,100,B,Raw,Yes,Amateur Open,33,1986-08-27
3,M,Aleksey Nabatov,Алексей Набатов,97.8,,,,,,160,170,-177.5,170,,,,,,,170,100,B,Raw,Yes,Amateur Open,32,1987-06-28
1,M,Maksim Shmakov,Максим Шмаков,94.4,,,,,,155,162.5,-167.5,162.5,,,,,,,162.5,100,B,Raw,Yes,Amateur Masters 40-49,40,1979-07-01
1,M,Vladimir Makarov,Владимир Макаров,95.8,,,,,,100,105,-107.5,105,,,,,,,105,100,B,Raw,Yes,Amateur Masters 70-79,73,1946-07-25
1,M,Aleksandr Pakhuchiy,Александр Пахучий,109.4,,,,,,200,210,220,220,,,,,,,220,110,B,Raw,Yes,Amateur Open,41,1978-04-24
2,M,Nikolay Chekalin,Николай Чекалин,109,,,,,,-210,210,-222.5,210,,,,,,,210,110,B,Raw,Yes,Amateur Open,37,1982-07-07
3,M,Roman Makarov,Роман Макаров,108.3,,,,,,167.5,-175,-175,167.5,,,,,,,167.5,110,B,Raw,Yes,Amateur Open,39,1980-03-08
4,M,Dmitriy Dalnikovskiy,Дмитрий Дальниковский,109.1,,,,,,142.5,-147.5,147.5,147.5,,,,,,,147.5,110,B,Raw,Yes,Amateur Open,36,1982-10-12
1,M,Igor Eroshkin,Игорь Ерошкин,107.9,,,,,,165,170,-175,170,,,,,,,170,110,B,Raw,Yes,Amateur Masters 50-59,53,1965-12-14
1,M,Magomedmurad Magomedov,Магомедмурад Магомедов,121.4,,,,,,190,197.5,-202.5,197.5,,,,,,,197.5,125,B,Raw,Yes,Amateur Open,44,1974-12-24
2,M,Gamlet Ustyan,Гамлет Устян,119.2,,,,,,-160,160,-177.5,160,,,,,,,160,125,B,Raw,Yes,Amateur Open,35,1984-07-21
3,M,Mikhail Melikov,Михаил Меликов,123.4,,,,,,160,-170,-172.5,160,,,,,,,160,125,B,Raw,Yes,Amateur Open,27,1991-10-28
4,M,Aleksandr Ponkratev,Александр Понкратьев,123.3,,,,,,125,-130,-130,125,,,,,,,125,125,B,Raw,Yes,Amateur Open,39,1979-10-26
1,M,Magomedmurad Magomedov,Магомедмурад Магомедов,121.4,,,,,,190,197.5,-202.5,197.5,,,,,,,197.5,125,B,Raw,Yes,Amateur Masters 40-49,44,1974-12-24
1,M,Dmitriy Rezaykin,Дмитрий Резайкин,131.4,,,,,,-225,225,230,230,,,,,,,230,140,B,Raw,Yes,Amateur Open,35,1984-02-12
1,M,Vitaliy Shaulskiy,Виталий Шаульский,134.3,,,,,,-205,205,-210,205,,,,,,,205,140,B,Raw,Yes,Amateur Masters 40-49,46,1973-06-02
1,M,Boris Trofimov,Борис Трофимов,156.2,,,,,,230,-242.5,-242.5,230,,,,,,,230,140+,B,Raw,Yes,Amateur Masters 40-49,47,1972-03-21
1,F,Yuliya Kalinchenko,Юлія Калінченко,79.7,,,,,,95,100,105,105,,,,,,,105,82.5,B,Raw,No,Pro Masters 40-49,41,1977-11-20
1,M,Evgeniy Korotchenko,Евгений Коротченко,88.1,,,,,,150,-160,-160,150,,,,,,,150,90,B,Raw,No,Pro Juniors 20-23,23,1996-04-03
1,M,Maksim Pytkin,Максим Пыткин,88.5,,,,,,210,220,-227.5,220,,,,,,,220,90,B,Raw,No,Pro Open,27,1992-03-30
2,M,Tigran Arutyunov,Тигран Арутюнов,89,,,,,,215,-222.5,-230,215,,,,,,,215,90,B,Raw,No,Pro Open,26,1993-07-02
3,M,Fuad Mamedov,Фуад Мамедов,87.5,,,,,,-165,165,-175,165,,,,,,,165,90,B,Raw,No,Pro Open,32,1987-01-02
1,M,Aleksandr Aleksandrov,Александр Александров,82.6,,,,,,190,200,208,208,,,,,,,208,90,B,Raw,No,Pro Masters 40-49,40,1979-07-19
1,M,Vitaliy Nikolaev,Виталий Николаев,98.4,,,,,,210,220,-227.5,220,,,,,,,220,100,B,Raw,No,Pro Open,37,1982-06-29
2,M,Murad Magomedov,Мурад Магомедов,95.1,,,,,,205,210,-215,210,,,,,,,210,100,B,Raw,No,Pro Open,29,1989-09-17
3,M,Evgeniy Martynov,Евгений Мартынов,98.7,,,,,,190,-200,-200,190,,,,,,,190,100,B,Raw,No,Pro Open,34,1985-06-14
1,M,Maksim Shmakov,Максим Шмаков,94.4,,,,,,155,162.5,-167.5,162.5,,,,,,,162.5,100,B,Raw,No,Pro Masters 40-49,40,1979-07-01
1,M,Vladimir Makarov,Владимир Макаров,95.8,,,,,,100,105,-107.5,105,,,,,,,105,100,B,Raw,No,Pro Masters 70-79,73,1946-07-25
1,M,David Chuba,Давид Чуба,116.2,,,,,,195,202.5,-207.5,202.5,,,,,,,202.5,125,B,Raw,No,Pro Open,33,1985-09-25
1,M,Aleksandr Khmelev,Александр Хмелев,123.8,,,,,,202.5,212.5,220,220,,,,,,,220,125,B,Raw,No,Pro Masters 40-49,47,1971-09-19
1,M,Vitaliy Mordvinov,Виталий Мордвинов,129.6,,,,,,270,-285,-285,270,,,,,,,270,140,B,Raw,No,Pro Open,32,1987-04-24
1,M,Aleksey Mustafin,Алексей Мустафин,128.3,,,,,,195,202.5,210,210,,,,,,,210,140,B,Raw,No,Pro Masters 40-49,40,1979-05-20
1,M,Yuriy Belenkiy,Юрий Беленький,81.8,,,,,,-212.5,212.5,-220,212.5,,,,,,,212.5,82.5,B,Single-ply,No,Pro Open,29,1990-03-23
1,M,Nikolay Reshetov,Николай Решетов,88.8,,,,,,-200,200,-217.5,200,,,,,,,200,90,B,Single-ply,Yes,Amateur Open,60,1959-02-23
1,M,Nikolay Reshetov,Николай Решетов,88.8,,,,,,-200,200,-217.5,200,,,,,,,200,90,B,Single-ply,Yes,Amateur Masters 60-69,60,1959-02-23
1,M,Ekaterina Gunaeva,Екатерина Гунаева,55.1,,,,,,85,95,-105,95,,,,,,,95,56,B,Single-ply,No,Pro Masters 40-49,40,1979-02-18
1,M,Nikolay Reshetov,Николай Решетов,88.8,,,,,,-200,200,-217.5,200,,,,,,,200,90,B,Single-ply,No,Pro Open,60,1959-02-23
1,M,Nikolay Reshetov,Николай Решетов,88.8,,,,,,-200,200,-217.5,200,,,,,,,200,90,B,Single-ply,No,Pro Masters 60-69,60,1959-02-23
1,M,Aleksandr Khmelev,Александр Хмелев,123.8,,,,,,290,300,-307.5,300,,,,,,,300,125,B,Single-ply,No,Pro Open,47,1971-09-19
1,F,Tatyana Dzhanpoladova,Татьяна Джанполадова,50.6,,,,,,,,,,,115,125,132.5,132.5,,132.5,52,D,Raw,Yes,Amateur Open,34,1984-09-15
1,F,Oksana Pakhuchaya,Оксана Пахучая,56,,,,,,,,,,,145,155,-160,155,,155,56,D,Raw,Yes,Amateur Open,40,1978-09-19
2,F,Anastasiya Zhdanova,Анастасия Жданова,55.9,,,,,,,,,,,122.5,130,-135,130,,130,56,D,Raw,Yes,Amateur Open,38,1980-12-11
3,F,Roza Yusupova,Роза Юсупова,54.9,,,,,,,,,,,110,-117.5,,110,,110,56,D,Raw,Yes,Amateur Open,38,1981-04-01
1,F,Olga Yurashkova,Ольга Юрашкова,59.2,,,,,,,,,,,125,-127.5,-127.5,125,,125,60,D,Raw,Yes,Amateur Open,43,1976-06-30
1,F,Olga Yurashkova,Ольга Юрашкова,59.2,,,,,,,,,,,125,-127.5,-127.5,125,,125,60,D,Raw,Yes,Amateur Masters 40-49,43,1976-06-30
1,F,Natalya Podobryaeva,Наталья Подобряева,75,,,,,,,,,,,130,140,-147.5,140,,140,75,D,Raw,Yes,Amateur Sub-Juniors 17-19,17,2001-12-27
DQ,F,Liya Minnigaraeva,Лия Миннигараева,74.4,,,,,,,,,,,-105,,,,,,75,D,Raw,Yes,Amateur Open,29,1990-05-19
1,M,Nikita Zdobnikov,Никита Здобников,73.7,,,,,,,,,,,220,-237.5,237.5,237.5,,237.5,75,D,Raw,Yes,Amateur Open,37,1982-04-20
DQ,M,Nikita Zakharov,Никита Захаров,80,,,,,,,,,,,-230.5,-230.5,,,,,82.5,D,Raw,Yes,Amateur Juniors 20-23,21,1998-08-31
1,M,Sergey Semyonov,Сергей Семёнов,81.4,,,,,,,,,,,225,235,242.5,242.5,,242.5,82.5,D,Raw,Yes,Amateur Open,27,1992-06-22
2,M,Roman Khachatryan,Роман Хачатрян,77.2,,,,,,,,,,,-190,200,-210,200,,200,82.5,D,Raw,Yes,Amateur Open,30,1988-10-26
1,M,Sergey Arkaniya,Сергей Аркания,87.7,,,,,,,,,,,-210,215,230,230,,230,90,D,Raw,Yes,Amateur Open,29,1989-10-17
1,M,Aleksandr Pakhuchiy,Александр Пахучий,109.4,,,,,,,,,,,300,320,-330,320,,320,110,D,Raw,Yes,Amateur Open,41,1978-04-24
2,M,Vladimir Avdzhyan,Владимир Авджян,109,,,,,,,,,,,230,250,-270,250,,250,110,D,Raw,Yes,Amateur Open,26,1993-02-16
3,M,Petr Padalkin,Петр Падалкин,107.3,,,,,,,,,,,200,215,-225,215,,215,110,D,Raw,Yes,Amateur Open,34,1984-11-17
1,M,Aleksandr Tsygankov,Александр Цыганков,108.2,,,,,,,,,,,247.5,265,-282.5,265,,265,110,D,Raw,Yes,Amateur Masters 50-59,54,1965-07-05
1,M,Akop Mkrtchyan,Акоп Мкртчян,115.6,,,,,,,,,,,270,290,-295,290,,290,125,D,Raw,Yes,Amateur Open,32,1987-03-23
2,M,Magomedmurad Magomedov,Магомедмурад Магомедов,121.4,,,,,,,,,,,-270,-270,270,270,,270,125,D,Raw,Yes,Amateur Open,44,1974-12-24
1,M,Magomedmurad Magomedov,Магомедмурад Магомедов,121.4,,,,,,,,,,,-270,-270,270,270,,270,125,D,Raw,Yes,Amateur Masters 40-49,44,1974-12-24
1,M,Svetlana Shishkanova,Светлана Шишканова,59.3,,,,,,,,,,,125,135,145,145,,145,60,D,Raw,No,Pro Masters 40-49,46,1973-08-07
1,M,Viktoriya Malinovskaya,Виктория Малиновская,70.3,,,,,,,,,,,215,222.5,227.5,227.5,,227.5,75,D,Raw,No,Pro Open,35,1983-10-05
2,M,Liya Minnigaraeva,Лия Миннигараева,74.4,,,,,,,,,,,110,125,-140,125,,125,75,D,Raw,No,Pro Open,29,1990-05-19
1,M,Aleksey Usmanov,Алексей Усманов,85.6,,,,,,,,,,,180,195,205,205,,205,90,D,Raw,No,Pro Masters 40-49,46,1973-02-27
1,M,Oleg Osipov,Олег Осипов,93.6,,,,,,,,,,,280,295,310,310,,310,100,D,Raw,No,Pro Open,32,1986-11-12
2,M,Ivan Isaev,Иван Исаев,99.8,,,,,,,,,,,310,-320,-320,310,,310,100,D,Raw,No,Pro Open,24,1995-01-03
3,M,Artur Agaev,Артур Агаев,98.8,,,,,,,,,,,220,235,-245,235,,235,100,D,Raw,No,Pro Open,41,1978-07-04
1,M,Aleksandr Medvedev,Александр Медведев,98.9,,,,,,,,,,,245,-255,265,265,,265,100,D,Raw,No,Pro Masters 50-59,52,1967-01-19
1,M,Aleksandr Yakovlev,Александр Яковлев,104.2,,,,,,,,,,,230,245,255,255,,255,110,D,Raw,No,Pro Masters 40-49,41,1978-07-13
1,M,Oleg Livshits,Олег Лившиц,120.9,,,,,,,,,,,310,330,-340,330,,330,125,D,Raw,No,Pro Masters 40-49,45,1973-10-03
1,M,Aleksandr Vovenko,Александр Вовенко,133.2,,,,,,,,,,,330,-350,-350,330,,330,140,D,Raw,No,Pro Open,38,1980-11-25
